Draft R Markdown document
…
import_rr (here::here("data-raw/mmash/user_1/rr.csv"))

# A tibble: 91,858 × 3
   ibi_s   day time    
   <dbl> <dbl> <time>  
 1 0.258     1 10:10:17
 2 0.319     1 10:10:18
 3 0.266     1 10:10:18
 4 0.401     1 10:10:18
 5 1.09      1 10:10:19
 6 0.752     1 10:10:20
 7 0.337     1 10:10:20
 8 0.933     1 10:10:21
 9 0.731     1 10:10:22
10 0.454     1 10:10:23
# ℹ 91,848 more rows

Exercise: Import the Actigraph data, test another dataset

# user_1_actigraph_file <- here("data-raw/mmash/user_1/Actigraph.csv")
# user_1_actigraph_data_prep <- vroom(
#   user_1_actigraph_file,
#   col_select = -1,
#   n_max = 100, # import max 100 rows
#   .name_repair = snakecase::to_snake_case
# )
# spec(user_1_actigraph_data_prep)

import_actigraph(here::here("data-raw/mmash/user_1/actigraph.csv"))

# A tibble: 67,936 × 12
   axis_1 axis_2 axis_3 steps    hr inclinometer_off inclinometer_standing
    <dbl>  <dbl>  <dbl> <dbl> <dbl>            <dbl>                 <dbl>
 1      0      0      0     0    68                0                     1
 2     11      4      7     1    68                0                     1
 3      0     21     10     0    68                0                     0
 4      0      1     24     0    68                0                     0
 5     34     14     63     1   154                0                     1
 6    101     10     90     0   161                0                     1
 7     17     18     49     0   177                0                     1
 8      0     34     23     0   177                0                     1
 9     12     50     13     1   177                0                     1
10     32     38     36     0   177                0                     1
# ℹ 67,926 more rows
# ℹ 5 more variables: inclinometer_sitting <dbl>, inclinometer_lying <dbl>,
#   vector_magnitude <dbl>, day <dbl>, time <time>
…
